…
## What is mean total number of steps taken per day?

### Total number of steps taken each day


```r
totalSteps <- data %>% filter(!is.na(steps)) %>% group_by(date) %>% summarize(number_steps=sum(steps))
totalSteps
```

```
## # A tibble: 53 x 2
##          date number_steps
##        <fctr>        <dbl>
##  1 2012-10-02          126
##  2 2012-10-03        11352
##  3 2012-10-04        12116
##  4 2012-10-05        13294
##  5 2012-10-06        15420
##  6 2012-10-07        11015
##  7 2012-10-09        12811
##  8 2012-10-10         9900
##  9 2012-10-11        10304
## 10 2012-10-12        17382
## # ... with 43 more rows
```
…
### Total number of steps taken each day (new dataset)


```r
totalSteps_new <- data_complete %>% group_by(date) %>% summarize(number_steps=sum(steps))
totalSteps_new
```

```
## # A tibble: 61 x 2
##          date number_steps
##        <fctr>        <dbl>
##  1 2012-10-01     10766.19
##  2 2012-10-02       126.00
##  3 2012-10-03     11352.00
##  4 2012-10-04     12116.00
##  5 2012-10-05     13294.00
##  6 2012-10-06     15420.00
##  7 2012-10-07     11015.00
##  8 2012-10-08     10766.19
##  9 2012-10-09     12811.00
## 10 2012-10-10      9900.00
## # ... with 51 more rows
```
…
